F16_laserspektroskopie/data/dopplerfrei/tempscan.csv

Record Length,2500,Points,0.0,-5.07999992,,Record Length,2500,Points,0.0,-136.0000074E-3,,Record Length,2500,Points,0.0,-1.2200000,,Record Length,2500,Points,0.0,-120.0000000,
Sample Interval,4.00000019E-3,s,4.00000019E-3,-5.07999992,,Sample Interval,4.00000019E-3,s,4.00000019E-3,-136.0000074E-3,,Sample Interval,4.00000019E-3,s,4.00000019E-3,-1.2200000,,Sample Interval,4.00000019E-3,s,4.00000019E-3,-120.0000000,
Trigger Point,0.0,Samples,8.000000380E-3,-5.07999992,,Trigger Point,0.0,Samples,8.000000380E-3,-136.0000074E-3,,Trigger Point,0.0,Samples,8.000000380E-3,-1.2200000,,Trigger Point,0.0,Samples,8.000000380E-3,-120.0000000,
,,,12.0000001E-3,-5.07999992,,,,,12.0000001E-3,-136.0000074E-3,,,,,12.0000001E-3,-1.2200000,,,,,12.0000001E-3,-120.0000000,
,,,16.0000008E-3,-5.07999992,,,,,16.0000008E-3,-136.0000074E-3,,,,,16.0000008E-3,-1.2200000,,,,,16.0000008E-3,-120.0000000,
,,,20.0000014E-3,-5.07999992,,,,,20.0000014E-3,-136.0000074E-3,,,,,20.0000014E-3,-1.2200000,,,,,20.0000014E-3,-120.0000000,
Source,CH1,,24.00000021E-3,-5.07999992,,Source,CH2,,24.00000021E-3,-136.0000074E-3,,Source,CH3,,24.00000021E-3,-1.2200000,,Source,CH4,,24.00000021E-3,-120.0000000,
Vertical Units,Volts,,28.00000086E-3,-5.07999992,,Vertical Units,Volts,,28.00000086E-3,-136.0000074E-3,,Vertical Units,Volts,,28.00000086E-3,-1.2200000,,Vertical Units,Volts,,28.00000086E-3,-120.0000000,
Vertical Scale,999.999977648E-3,,32.00000152E-3,-5.07999992,,Vertical Scale,100.0000047E-3,,32.00000152E-3,-136.0000074E-3,,Vertical Scale,499.999988824E-3,,32.00000152E-3,-1.2200000,,Vertical Scale,20.0000003,,32.00000152E-3,-120.0000000,
Vertical Offset,0,,36.00000218E-3,-5.07999992,,Vertical Offset,0,,36.00000218E-3,-136.0000074E-3,,Vertical Offset,0,,36.00000218E-3,-1.2200000,,Vertical Offset,0,,36.00000218E-3,-120.0000000,
Horizontal Units,s,,40.00000283E-3,-5.07999992,,Horizontal Units,s,,40.00000283E-3,-136.0000074E-3,,Horizontal Units,s,,40.00000283E-3,-1.2200000,,Horizontal Units,s,,40.00000283E-3,-120.0000000,
Horizontal Scale,1.0000000,,44.00000349E-3,-5.07999992,,Horizontal Scale,1.0000000,,44.00000349E-3,-136.0000074E-3,,Horizontal Scale,1.0000000,,44.00000349E-3,-1.2200000,,Horizontal Scale,1.0000000,,44.00000349E-3,-120.0000000,
Pt Fmt,Y,,48.00000042E-3,-5.07999992,,Pt Fmt,Y,,48.00000042E-3,-136.0000074E-3,,Pt Fmt,Y,,48.00000042E-3,-1.2200000,,Pt Fmt,Y,,48.00000042E-3,-120.0000000,
Yzero,-40.00000000E-3,,52.00000107E-3,-5.07999992,,Yzero,-3.76000000,,52.00000107E-3,-136.0000074E-3,,Yzero,-2.6800000,,52.00000107E-3,-1.2200000,,Yzero,880.000000000E-3,,52.00000107E-3,-120.0000000,
Probe Atten,10.0000000,,56.000001729E-3,-5.07999992,,Probe Atten,10.0000000,,56.000001729E-3,-136.0000074E-3,,Probe Atten,10.0000000,,56.000001729E-3,-1.2200000,,Probe Atten,10.0000000,,56.000001729E-3,-120.0000000,
,,,60.000002384E-3,-5.07999992,,,,,60.000002384E-3,-136.0000074E-3,,,,,60.000002384E-3,-1.2200000,,,,,60.000002384E-3,-120.0000000,
Note,TBS 1104 - 2:07:23 PM   8/14/2018,,64.000003040E-3,-5.07999992,,Note,TBS 1104 - 2:07:23 PM   8/14/2018,,64.000003040E-3,-136.0000074E-3,,Note,TBS 1104 - 2:07:23 PM   8/14/2018,,64.000003040E-3,-1.2200000,,Note,TBS 1104 - 2:07:23 PM   8/14/2018,,64.000003040E-3,-120.0000000,
,,,68.000003695E-3,-5.07999992,,,,,68.000003695E-3,-136.0000074E-3,,,,,68.000003695E-3,-1.2200000,,,,,68.000003695E-3,-120.0000000,
,,,72.000004351E-3,-5.07999992,,,,,72.000004351E-3,-136.0000074E-3,,,,,72.000004351E-3,-1.2200000,,,,,72.000004351E-3,-120.0000000,
,,,76.000005007E-3,-5.07999992,,,,,76.000005007E-3,-136.0000074E-3,,,,,76.000005007E-3,-1.2200000,,,,,76.000005007E-3,-120.0000000,
,,,80.000005662E-3,-5.07999992,,,,,80.000005662E-3,-136.0000074E-3,,,,,80.000005662E-3,-1.2200000,,,,,80.000005662E-3,-120.0000000,
,,,84.000006318E-3,-5.07999992,,,,,84.000006318E-3,-136.0000074E-3,,,,,84.000006318E-3,-1.2200000,,,,,84.000006318E-3,-120.0000000,
,,,88.000006974E-3,-5.07999992,,,,,88.000006974E-3,-136.0000074E-3,,,,,88.000006974E-3,-1.2200000,,,,,88.000006974E-3,-120.0000000,
,,,92.000007629E-3,-5.07999992,,,,,92.000007629E-3,-136.0000074E-3,,,,,92.000007629E-3,-1.2200000,,,,,92.000007629E-3,-120.0000000,
,,,96.000000834E-3,-5.07999992,,,,,96.000000834E-3,-136.0000074E-3,,,,,96.000000834E-3,-1.2200000,,,,,96.000000834E-3,-120.0000000,
,,,100.0000015E-3,-5.07999992,,,,,100.0000015E-3,-136.0000074E-3,,,,,100.0000015E-3,-1.2200000,,,,,100.0000015E-3,-120.0000000,
,,,104.0000021E-3,-5.07999992,,,,,104.0000021E-3,-136.0000074E-3,,,,,104.0000021E-3,-1.2200000,,,,,104.0000021E-3,-120.0000000,
,,,108.0000028E-3,-5.07999992,,,,,108.0000028E-3,-136.0000074E-3,,,,,108.0000028E-3,-1.2200000,,,,,108.0000028E-3,-120.0000000,
,,,112.0000035E-3,-5.07999992,,,,,112.0000035E-3,-136.0000074E-3,,,,,112.0000035E-3,-1.2200000,,,,,112.0000035E-3,-120.0000000,
,,,116.0000041E-3,-5.07999992,,,,,116.0000041E-3,-136.0000074E-3,,,,,116.0000041E-3,-1.2200000,,,,,116.0000041E-3,-120.0000000,
,,,120.0000048E-3,-5.07999992,,,,,120.0000048E-3,-136.0000074E-3,,,,,120.0000048E-3,-1.2200000,,,,,120.0000048E-3,-120.0000000,
,,,124.0000054E-3,-5.07999992,,,,,124.0000054E-3,-136.0000074E-3,,,,,124.0000054E-3,-1.2200000,,,,,124.0000054E-3,-120.0000000,
,,,128.0000061E-3,-5.07999992,,,,,128.0000061E-3,-136.0000074E-3,,,,,128.0000061E-3,-1.2200000,,,,,128.0000061E-3,-120.0000000,
,,,131.9999993E-3,-5.07999992,,,,,131.9999993E-3,-136.0000074E-3,,,,,131.9999993E-3,-1.2200000,,,,,131.9999993E-3,-120.0000000,
,,,136.0000074E-3,-5.07999992,,,,,136.0000074E-3,-136.0000074E-3,,,,,136.0000074E-3,-1.2200000,,,,,136.0000074E-3,-120.0000000,
,,,140.0000006E-3,-5.07999992,,,,,140.0000006E-3,-136.0000074E-3,,,,,140.0000006E-3,-1.2200000,,,,,140.0000006E-3,-120.0000000,
,,,144.0000087E-3,-5.07999992,,,,,144.0000087E-3,-136.0000074E-3,,,,,144.0000087E-3,-1.2200000,,,,,144.0000087E-3,-120.0000000,
,,,148.0000019E-3,-5.07999992,,,,,148.0000019E-3,-136.0000074E-3,,,,,148.0000019E-3,-1.2200000,,,,,148.0000019E-3,-120.0000000,
,,,152.00001001E-3,-5.07999992,,,,,152.00001001E-3,-136.0000074E-3,,,,,152.00001001E-3,-1.2200000,,,,,152.00001001E-3,-120.0000000,
,,,156.00000322E-3,-5.07999992,,,,,156.00000322E-3,-136.0000074E-3,,,,,156.00000322E-3,-1.2200000,,,,,156.00000322E-3,-120.0000000,
,,,160.00001132E-3,-5.07999992,,,,,160.00001132E-3,-136.0000074E-3,,,,,160.00001132E-3,-1.2200000,,,,,160.00001132E-3,-120.0000000,
,,,164.00000453E-3,-5.07999992,,,,,164.00000453E-3,-136.0000074E-3,,,,,164.00000453E-3,-1.2200000,,,,,164.00000453E-3,-120.0000000,
,,,168.00001264E-3,-5.07999992,,,,,168.00001264E-3,-136.0000074E-3,,,,,168.00001264E-3,-1.2200000,,,,,168.00001264E-3,-120.0000000,
,,,172.00000584E-3,-5.07999992,,,,,172.00000584E-3,-136.0000074E-3,,,,,172.00000584E-3,-1.2200000,,,,,172.00000584E-3,-120.0000000,
,,,176.00001395E-3,-5.07999992,,,,,176.00001395E-3,-136.0000074E-3,,,,,176.00001395E-3,-1.2200000,,,,,176.00001395E-3,-120.0000000,
,,,180.00000715E-3,-5.07999992,,,,,180.00000715E-3,-136.0000074E-3,,,,,180.00000715E-3,-1.2200000,,,,,180.00000715E-3,-120.0000000,
,,,184.00001526E-3,-5.07999992,,,,,184.00001526E-3,-136.0000074E-3,,,,,184.00001526E-3,-1.2200000,,,,,184.00001526E-3,-120.0000000,
,,,188.00000846E-3,-5.07999992,,,,,188.00000846E-3,-136.0000074E-3,,,,,188.00000846E-3,-1.2200000,,,,,188.00000846E-3,-120.0000000,
,,,192.00000167E-3,-5.07999992,,,,,192.00000167E-3,-136.0000074E-3,,,,,192.00000167E-3,-1.2200000,,,,,192.00000167E-3,-120.0000000,
,,,196.00000978E-3,-5.07999992,,,,,196.00000978E-3,-136.0000074E-3,,,,,196.00000978E-3,-1.2200000,,,,,196.00000978E-3,-120.0000000,
,,,200.00000298E-3,-5.07999992,,,,,200.00000298E-3,-136.0000074E-3,,,,,200.00000298E-3,-1.2200000,,,,,200.00000298E-3,-120.0000000,
,,,204.00001109E-3,-5.07999992,,,,,204.00001109E-3,-136.0000074E-3,,,,,204.00001109E-3,-1.2200000,,,,,204.00001109E-3,-120.0000000,
,,,208.00000429E-3,-5.07999992,,,,,208.00000429E-3,-136.0000074E-3,,,,,208.00000429E-3,-1.2200000,,,,,208.00000429E-3,-120.0000000,
,,,212.00001240E-3,-5.07999992,,,,,212.00001240E-3,-136.0000074E-3,,,,,212.00001240E-3,-1.2200000,,,,,212.00001240E-3,-120.0000000,
,,,216.00000560E-3,-5.07999992,,,,,216.00000560E-3,-136.0000074E-3,,,,,216.00000560E-3,-1.2200000,,,,,216.00000560E-3,-120.0000000,
,,,220.00001371E-3,-5.07999992,,,,,220.00001371E-3,-136.0000074E-3,,,,,220.00001371E-3,-1.2200000,,,,,220.00001371E-3,-120.0000000,
,,,224.00000691E-3,-5.07999992,,,,,224.00000691E-3,-136.0000074E-3,,,,,224.00000691E-3,-1.2200000,,,,,224.00000691E-3,-120.0000000,
,,,228.00001502E-3,-5.07999992,,,,,228.00001502E-3,-136.0000074E-3,,,,,228.00001502E-3,-1.2200000,,,,,228.00001502E-3,-120.0000000,
,,,232.00000823E-3,-5.07999992,,,,,232.00000823E-3,-136.0000074E-3,,,,,232.00000823E-3,-1.2200000,,,,,232.00000823E-3,-120.0000000,
,,,236.00001633E-3,-5.07999992,,,,,236.00001633E-3,-136.0000074E-3,,,,,236.00001633E-3,-1.2200000,,,,,236.00001633E-3,-120.0000000,
,,,240.00000954E-3,-5.07999992,,,,,240.00000954E-3,-136.0000074E-3,,,,,240.00000954E-3,-1.2200000,,,,,240.00000954E-3,-120.0000000,
,,,244.00001764E-3,-5.07999992,,,,,244.00001764E-3,-136.0000074E-3,,,,,244.00001764E-3,-1.2200000,,,,,244.00001764E-3,-120.0000000,
,,,248.00001085E-3,-5.07999992,,,,,248.00001085E-3,-136.0000074E-3,,,,,248.00001085E-3,-1.2200000,,,,,248.00001085E-3,-120.0000000,
,,,252.00000405E-3,-5.07999992,,,,,252.00000405E-3,-136.0000074E-3,,,,,252.00000405E-3,-1.2200000,,,,,252.00000405E-3,-120.0000000,
,,,256.00001216E-3,-5.07999992,,,,,256.00001216E-3,-136.0000074E-3,,,,,256.00001216E-3,-1.2200000,,,,,256.00001216E-3,-120.0000000,
,,,260.00002027E-3,-5.07999992,,,,,260.00002027E-3,-136.0000074E-3,,,,,260.00002027E-3,-1.2200000,,,,,260.00002027E-3,-120.0000000,
,,,263.99999857E-3,-5.07999992,,,,,263.99999857E-3,-136.0000074E-3,,,,,263.99999857E-3,-1.2200000,,,,,263.99999857E-3,-120.0000000,
,,,268.00000668E-3,-5.07999992,,,,,268.00000668E-3,-136.0000074E-3,,,,,268.00000668E-3,-1.2200000,,,,,268.00000668E-3,-120.0000000,
,,,272.00001478E-3,-5.07999992,,,,,272.00001478E-3,-136.0000074E-3,,,,,272.00001478E-3,-1.2200000,,,,,272.00001478E-3,-120.0000000,
,,,276.00002289E-3,-5.07999992,,,,,276.00002289E-3,-136.0000074E-3,,,,,276.00002289E-3,-1.2200000,,,,,276.00002289E-3,-120.0000000,
,,,280.00000119E-3,-5.07999992,,,,,280.00000119E-3,-136.0000074E-3,,,,,280.00000119E-3,-1.2200000,,,,,280.00000119E-3,-120.0000000,
,,,284.00000930E-3,-5.07999992,,,,,284.00000930E-3,-136.0000074E-3,,,,,284.00000930E-3,-1.2200000,,,,,284.00000930E-3,-120.0000000,
,,,288.00001740E-3,-5.07999992,,,,,288.00001740E-3,-136.0000074E-3,,,,,288.00001740E-3,-1.2200000,,,,,288.00001740E-3,-120.0000000,
,,,292.00002551E-3,-5.07999992,,,,,292.00002551E-3,-136.0000074E-3,,,,,292.00002551E-3,-1.2200000,,,,,292.00002551E-3,-120.0000000,
,,,296.00000381E-3,-5.07999992,,,,,296.00000381E-3,-136.0000074E-3,,,,,296.00000381E-3,-1.2200000,,,,,296.00000381E-3,-120.0000000,
,,,300.00001192E-3,1.6799999,,,,,300.00001192E-3,188.00000846E-3,,,,,300.00001192E-3,-1.2200000,,,,,300.00001192E-3,-120.0000000,
,,,304.00002003E-3,1.6400000,,,,,304.00002003E-3,148.0000019E-3,,,,,304.00002003E-3,-1.2200000,,,,,304.00002003E-3,-120.0000000,
,,,308.00002813E-3,1.6799999,,,,,308.00002813E-3,148.0000019E-3,,,,,308.00002813E-3,-1.2200000,,,,,308.00002813E-3,-120.0000000,
,,,312.00000644E-3,1.6799999,,,,,312.00000644E-3,116.0000041E-3,,,,,312.00000644E-3,2.4600000,,,,,312.00000644E-3,34.40000153,
,,,316.00001454E-3,1.6799999,,,,,316.00001454E-3,108.0000028E-3,,,,,316.00001454E-3,2.4800000,,,,,316.00001454E-3,34.40000153,
,,,320.00002265E-3,1.6400000,,,,,320.00002265E-3,84.000006318E-3,,,,,320.00002265E-3,2.4800000,,,,,320.00002265E-3,34.40000153,
,,,324.00000095E-3,1.6400000,,,,,324.00000095E-3,68.000003695E-3,,,,,324.00000095E-3,2.4800000,,,,,324.00000095E-3,34.40000153,
,,,328.00000906E-3,1.6799999,,,,,328.00000906E-3,64.000003040E-3,,,,,328.00000906E-3,2.4800000,,,,,328.00000906E-3,34.40000153,
,,,332.00001717E-3,1.6799999,,,,,332.00001717E-3,44.00000349E-3,,,,,332.00001717E-3,2.4800000,,,,,332.00001717E-3,34.40000153,
,,,336.00002527E-3,1.6799999,,,,,336.00002527E-3,40.00000283E-3,,,,,336.00002527E-3,2.4800000,,,,,336.00002527E-3,34.40000153,
,,,340.00000358E-3,1.6799999,,,,,340.00000358E-3,32.00000152E-3,,,,,340.00000358E-3,2.4800000,,,,,340.00000358E-3,34.40000153,
,,,344.00001168E-3,1.6799999,,,,,344.00001168E-3,24.00000021E-3,,,,,344.00001168E-3,2.4800000,,,,,344.00001168E-3,34.40000153,
,,,348.00001979E-3,1.6400000,,,,,348.00001979E-3,24.00000021E-3,,,,,348.00001979E-3,2.4800000,,,,,348.00001979E-3,34.40000153,
,,,352.00002789E-3,1.6799999,,,,,352.00002789E-3,24.00000021E-3,,,,,352.00002789E-3,2.4800000,,,,,352.00002789E-3,35.20000076,
,,,356.00000620E-3,1.6799999,,,,,356.00000620E-3,20.0000014E-3,,,,,356.00000620E-3,2.4800000,,,,,356.00000620E-3,34.40000153,
,,,360.00001431E-3,1.6799999,,,,,360.00001431E-3,20.0000014E-3,,,,,360.00001431E-3,2.4800000,,,,,360.00001431E-3,35.20000076,
,,,364.00002241E-3,1.6400000,,,,,364.00002241E-3,16.0000008E-3,,,,,364.00002241E-3,2.4800000,,,,,364.00002241E-3,35.20000076,
,,,368.00003052E-3,1.6799999,,,,,368.00003052E-3,16.0000008E-3,,,,,368.00003052E-3,2.4800000,,,,,368.00003052E-3,35.20000076,
,,,372.00000882E-3,1.6400000,,,,,372.00000882E-3,8.000000380E-3,,,,,372.00000882E-3,2.4800000,,,,,372.00000882E-3,35.20000076,
,,,376.00001693E-3,1.6400000,,,,,376.00001693E-3,8.000000380E-3,,,,,376.00001693E-3,2.5000000,,,,,376.00001693E-3,35.20000076,
,,,380.00002503E-3,1.6799999,,,,,380.00002503E-3,12.0000001E-3,,,,,380.00002503E-3,2.4800000,,,,,380.00002503E-3,35.20000076,
,,,384.00000334E-3,1.6799999,,,,,384.00000334E-3,8.000000380E-3,,,,,384.00000334E-3,2.4800000,,,,,384.00000334E-3,35.20000076,
,,,388.00001144E-3,1.6799999,,,,,388.00001144E-3,8.000000380E-3,,,,,388.00001144E-3,2.4800000,,,,,388.00001144E-3,35.20000076,
,,,392.00001955E-3,1.6799999,,,,,392.00001955E-3,8.000000380E-3,,,,,392.00001955E-3,2.5000000,,,,,392.00001955E-3,35.20000076,
,,,396.00002766E-3,1.6400000,,,,,396.00002766E-3,12.0000001E-3,,,,,396.00002766E-3,2.4800000,,,,,396.00002766E-3,35.20000076,
,,,400.00000596E-3,1.6799999,,,,,400.00000596E-3,4.00000019E-3,,,,,400.00000596E-3,2.4800000,,,,,400.00000596E-3,35.20000076,
,,,404.000014067E-3,1.6799999,,,,,404.000014067E-3,12.0000001E-3,,,,,404.000014067E-3,2.4800000,,,,,404.000014067E-3,35.20000076,
,,,408.000022173E-3,1.6400000,,,,,408.000022173E-3,12.0000001E-3,,,,,408.000022173E-3,2.4800000,,,,,408.000022173E-3,36.00000000,
,,,412.000030279E-3,1.6799999,,,,,412.000030279E-3,8.000000380E-3,,,,,412.000030279E-3,2.4800000,,,,,412.000030279E-3,35.20000076,
,,,416.000008583E-3,1.6799999,,,,,416.000008583E-3,12.0000001E-3,,,,,416.000008583E-3,2.4800000,,,,,416.000008583E-3,36.00000000,
,,,420.000016689E-3,1.6799999,,,,,420.000016689E-3,4.00000019E-3,,,,,420.000016689E-3,2.4600000,,,,,420.000016689E-3,35.20000076,
,,,424.000024796E-3,1.6799999,,,,,424.000024796E-3,8.000000380E-3,,,,,424.000024796E-3,2.4600000,,,,,424.000024796E-3,36.00000000,
,,,428.000032902E-3,1.6799999,,,,,428.000032902E-3,16.0000008E-3,,,,,428.000032902E-3,2.4600000,,,,,428.000032902E-3,36.00000000,
,,,432.000011206E-3,1.6799999,,,,,432.000011206E-3,4.00000019E-3,,,,,432.000011206E-3,2.4800000,,,,,432.000011206E-3,35.20000076,
,,,436.000019312E-3,1.6799999,,,,,436.000019312E-3,12.0000001E-3,,,,,436.000019312E-3,2.5000000,,,,,436.000019312E-3,36.00000000,
,,,440.000027418E-3,1.6799999,,,,,440.000027418E-3,8.000000380E-3,,,,,440.000027418E-3,2.4600000,,,,,440.000027418E-3,35.20000076,
,,,444.000035524E-3,1.6799999,,,,,444.000035524E-3,8.000000380E-3,,,,,444.000035524E-3,2.4600000,,,,,444.000035524E-3,35.20000076,
,,,448.000013828E-3,1.6799999,,,,,448.000013828E-3,-4.00000019E-3,,,,,448.000013828E-3,2.4800000,,,,,448.000013828E-3,35.20000076,
,,,452.000021935E-3,1.6799999,,,,,452.000021935E-3,16.0000008E-3,,,,,452.000021935E-3,2.4800000,,,,,452.000021935E-3,36.00000000,
,,,456.000030041E-3,1.6799999,,,,,456.000030041E-3,8.000000380E-3,,,,,456.000030041E-3,2.4600000,,,,,456.000030041E-3,36.00000000,
,,,460.000008345E-3,1.6799999,,,,,460.000008345E-3,0.0,,,,,460.000008345E-3,2.4800000,,,,,460.000008345E-3,36.00000000,
,,,464.000016451E-3,1.6799999,,,,,464.000016451E-3,8.000000380E-3,,,,,464.000016451E-3,2.4800000,,,,,464.000016451E-3,36.00000000,
,,,468.000024557E-3,1.6799999,,,,,468.000024557E-3,12.0000001E-3,,,,,468.000024557E-3,2.5000000,,,,,468.000024557E-3,36.00000000,
,,,472.000032663E-3,1.6799999,,,,,472.000032663E-3,8.000000380E-3,,,,,472.000032663E-3,2.4600000,,,,,472.000032663E-3,35.20000076,
,,,476.000010967E-3,1.6799999,,,,,476.000010967E-3,8.000000380E-3,,,,,476.000010967E-3,2.4800000,,,,,476.000010967E-3,35.20000076,
,,,480.000019073E-3,1.6400000,,,,,480.000019073E-3,-8.000000380E-3,,,,,480.000019073E-3,2.4800000,,,,,480.000019073E-3,36.00000000,
,,,484.000027180E-3,1.6799999,,,,,484.000027180E-3,-4.00000019E-3,,,,,484.000027180E-3,2.4800000,,,,,484.000027180E-3,36.79999924,
,,,488.000035286E-3,1.6799999,,,,,488.000035286E-3,4.00000019E-3,,,,,488.000035286E-3,2.4800000,,,,,488.000035286E-3,36.00000000,
,,,492.000013590E-3,1.6799999,,,,,492.000013590E-3,-4.00000019E-3,,,,,492.000013590E-3,2.4600000,,,,,492.000013590E-3,36.00000000,
,,,496.000021696E-3,1.6799999,,,,,496.000021696E-3,4.00000019E-3,,,,,496.000021696E-3,2.4800000,,,,,496.000021696E-3,36.00000000,
,,,500.000000000E-3,1.6799999,,,,,500.000000000E-3,8.000000380E-3,,,,,500.000000000E-3,2.4600000,,,,,500.000000000E-3,36.00000000,
,,,504.000008106E-3,1.6799999,,,,,504.000008106E-3,4.00000019E-3,,,,,504.000008106E-3,2.4800000,,,,,504.000008106E-3,36.79999924,
,,,508.000016212E-3,1.6799999,,,,,508.000016212E-3,0.0,,,,,508.000016212E-3,2.4800000,,,,,508.000016212E-3,36.00000000,
,,,512.000024319E-3,1.6799999,,,,,512.000024319E-3,0.0,,,,,512.000024319E-3,2.4800000,,,,,512.000024319E-3,36.00000000,
,,,516.000032425E-3,1.6799999,,,,,516.000032425E-3,8.000000380E-3,,,,,516.000032425E-3,2.5000000,,,,,516.000032425E-3,36.79999924,
,,,520.000040531E-3,1.6799999,,,,,520.000040531E-3,-4.00000019E-3,,,,,520.000040531E-3,2.5000000,,,,,520.000040531E-3,36.00000000,
,,,524.000048637E-3,1.6799999,,,,,524.000048637E-3,0.0,,,,,524.000048637E-3,2.4800000,,,,,524.000048637E-3,36.79999924,
,,,527.999997139E-3,1.6799999,,,,,527.999997139E-3,4.00000019E-3,,,,,527.999997139E-3,2.5000000,,,,,527.999997139E-3,36.00000000,
,,,532.000005245E-3,1.6799999,,,,,532.000005245E-3,4.00000019E-3,,,,,532.000005245E-3,2.4800000,,,,,532.000005245E-3,36.00000000,
,,,536.000013351E-3,1.6400000,,,,,536.000013351E-3,4.00000019E-3,,,,,536.000013351E-3,2.4800000,,,,,536.000013351E-3,36.00000000,
,,,540.000021458E-3,1.6799999,,,,,540.000021458E-3,4.00000019E-3,,,,,540.000021458E-3,2.4800000,,,,,540.000021458E-3,36.00000000,
,,,544.000029564E-3,1.6799999,,,,,544.000029564E-3,8.000000380E-3,,,,,544.000029564E-3,2.4800000,,,,,544.000029564E-3,36.00000000,
,,,548.000037670E-3,1.6799999,,,,,548.000037670E-3,-4.00000019E-3,,,,,548.000037670E-3,2.4800000,,,,,548.000037670E-3,36.00000000,
,,,552.000045776E-3,1.6400000,,,,,552.000045776E-3,0.0,,,,,552.000045776E-3,2.5000000,,,,,552.000045776E-3,36.00000000,
,,,556.000053883E-3,1.6799999,,,,,556.000053883E-3,8.000000380E-3,,,,,556.000053883E-3,2.4800000,,,,,556.000053883E-3,36.00000000,
,,,560.000002384E-3,1.6799999,,,,,560.000002384E-3,12.0000001E-3,,,,,560.000002384E-3,2.4800000,,,,,560.000002384E-3,36.00000000,
,,,564.000010490E-3,1.6799999,,,,,564.000010490E-3,0.0,,,,,564.000010490E-3,2.4800000,,,,,564.000010490E-3,36.00000000,
,,,568.000018597E-3,1.6799999,,,,,568.000018597E-3,4.00000019E-3,,,,,568.000018597E-3,2.4800000,,,,,568.000018597E-3,36.00000000,
,,,572.000026703E-3,1.6400000,,,,,572.000026703E-3,4.00000019E-3,,,,,572.000026703E-3,2.5000000,,,,,572.000026703E-3,35.20000076,
,,,576.000034809E-3,1.6799999,,,,,576.000034809E-3,12.0000001E-3,,,,,576.000034809E-3,2.4800000,,,,,576.000034809E-3,36.00000000,
,,,580.000042915E-3,1.6799999,,,,,580.000042915E-3,4.00000019E-3,,,,,580.000042915E-3,2.5000000,,,,,580.000042915E-3,35.20000076,
